[[1;34mINFO[m] Scanning for projects...
[[1;33mWARNING[m] 
[[1;33mWARNING[m] Some problems were encountered while building the effective model for id.co.insura.bhinneka:bhinneka-backend:jar:0.0.1-SNAPSHOT
[[1;33mWARNING[m] 'dependencies.dependency.version' for org.springframework.boot:spring-boot-starter-undertow:jar is either LATEST or RELEASE (both of them are being deprecated) @ line 77, column 13
[[1;33mWARNING[m] 'dependencies.dependency.(groupId:artifactId:type:classifier)' must be unique: org.projectlombok:lombok:jar -> version 1.16.8 vs edge-SNAPSHOT @ line 136, column 15
[[1;33mWARNING[m] 'dependencies.dependency.(groupId:artifactId:type:classifier)' must be unique: org.modelmapper:modelmapper:jar -> version 0.7.4 vs 2.3.2 @ line 205, column 15
[[1;33mWARNING[m] 'build.plugins.plugin.(groupId:artifactId)' must be unique but found duplicate declaration of plugin org.apache.maven.plugins:maven-compiler-plugin @ line 306, column 12
[[1;33mWARNING[m] 
[[1;33mWARNING[m] It is highly recommended to fix these problems because they threaten the stability of your build.
[[1;33mWARNING[m] 
[[1;33mWARNING[m] For this reason, future Maven versions might no longer support building such malformed projects.
[[1;33mWARNING[m] 
[[1;34mINFO[m] 
[[1;34mINFO[m] [1m---------------< [0;36mid.co.insura.bhinneka:bhinneka-backend[0;1m >---------------[m
[[1;34mINFO[m] [1mBuilding bhinneka-backend 0.0.1-SNAPSHOT[m
[[1;34mINFO[m] [1m--------------------------------[ jar ]---------------------------------[m
[[1;34mINFO[m] 
[[1;34mINFO[m] [1m--- [0;32mmaven-clean-plugin:3.0.0:clean[m [1m(default-clean)[m @ [36mbhinneka-backend[0;1m ---[m
[[1;34mINFO[m] Deleting /home/oem/insurance-workspace/bhinneka-backend/target
[[1;34mINFO[m] 
[[1;34mINFO[m] [1m--- [0;32mmaven-resources-plugin:3.0.2:resources[m [1m(default-resources)[m @ [36mbhinneka-backend[0;1m ---[m
[[1;34mINFO[m] Using 'UTF-8' encoding to copy filtered resources.
[[1;34mINFO[m] Copying 3 resources
[[1;34mINFO[m] Copying 4 resources
[[1;34mINFO[m] 
[[1;34mINFO[m] [1m--- [0;32mmaven-compiler-plugin:3.7.0:compile[m [1m(default-compile)[m @ [36mbhinneka-backend[0;1m ---[m
[[1;34mINFO[m] Changes detected - recompiling the module!
[[1;34mINFO[m] Compiling 74 source files to /home/oem/insurance-workspace/bhinneka-backend/target/classes
[[1;34mINFO[m] /home/oem/insurance-workspace/bhinneka-backend/src/main/java/id/co/insura/bhinneka/config/BasicConfiguration.java: /home/oem/insurance-workspace/bhinneka-backend/src/main/java/id/co/insura/bhinneka/config/BasicConfiguration.java uses or overrides a deprecated API.
[[1;34mINFO[m] /home/oem/insurance-workspace/bhinneka-backend/src/main/java/id/co/insura/bhinneka/config/BasicConfiguration.java: Recompile with -Xlint:deprecation for details.
[[1;34mINFO[m] /home/oem/insurance-workspace/bhinneka-backend/src/main/java/id/co/insura/bhinneka/model/WSResponse.java: Some input files use unchecked or unsafe operations.
[[1;34mINFO[m] /home/oem/insurance-workspace/bhinneka-backend/src/main/java/id/co/insura/bhinneka/model/WSResponse.java: Recompile with -Xlint:unchecked for details.
[[1;34mINFO[m] 
[[1;34mINFO[m] [1m--- [0;32mmaven-resources-plugin:3.0.2:testResources[m [1m(default-testResources)[m @ [36mbhinneka-backend[0;1m ---[m
[[1;34mINFO[m] Using 'UTF-8' encoding to copy filtered resources.
[[1;34mINFO[m] skip non existing resourceDirectory /home/oem/insurance-workspace/bhinneka-backend/src/test/resources
[[1;34mINFO[m] 
[[1;34mINFO[m] [1m--- [0;32mmaven-compiler-plugin:3.7.0:testCompile[m [1m(default-testCompile)[m @ [36mbhinneka-backend[0;1m ---[m
[[1;34mINFO[m] Nothing to compile - all classes are up to date
[[1;34mINFO[m] 
[[1;34mINFO[m] [1m--- [0;32mmaven-surefire-plugin:2.20.1:test[m [1m(default-test)[m @ [36mbhinneka-backend[0;1m ---[m
[[1;34mINFO[m] No tests to run.
[[1;34mINFO[m] 
[[1;34mINFO[m] [1m--- [0;32mmaven-jar-plugin:3.0.2:jar[m [1m(default-jar)[m @ [36mbhinneka-backend[0;1m ---[m
[[1;34mINFO[m] Building jar: /home/oem/insurance-workspace/bhinneka-backend/target/bhinneka-backend-0.0.1-SNAPSHOT.jar
[[1;34mINFO[m] 
[[1;34mINFO[m] [1m--- [0;32mspring-boot-maven-plugin:2.0.3.RELEASE:repackage[m [1m(default)[m @ [36mbhinneka-backend[0;1m ---[m
[[1;34mINFO[m] 
[[1;34mINFO[m] [1m--- [0;32mmaven-install-plugin:2.5.2:install[m [1m(default-install)[m @ [36mbhinneka-backend[0;1m ---[m
[[1;34mINFO[m] Installing /home/oem/insurance-workspace/bhinneka-backend/target/bhinneka-backend-0.0.1-SNAPSHOT.jar to /home/oem/.m2/repository/id/co/insura/bhinneka/bhinneka-backend/0.0.1-SNAPSHOT/bhinneka-backend-0.0.1-SNAPSHOT.jar
[[1;34mINFO[m] Installing /home/oem/insurance-workspace/bhinneka-backend/pom.xml to /home/oem/.m2/repository/id/co/insura/bhinneka/bhinneka-backend/0.0.1-SNAPSHOT/bhinneka-backend-0.0.1-SNAPSHOT.pom
[[1;34mINFO[m] [1m------------------------------------------------------------------------[m
[[1;34mINFO[m] [1;32mBUILD SUCCESS[m
[[1;34mINFO[m] [1m------------------------------------------------------------------------[m
[[1;34mINFO[m] Total time:  5.630 s
[[1;34mINFO[m] Finished at: 2019-12-19T11:46:44+07:00
[[1;34mINFO[m] [1m------------------------------------------------------------------------[m
[[1;34mINFO[m] Scanning for projects...
[[1;33mWARNING[m] 
[[1;33mWARNING[m] Some problems were encountered while building the effective model for id.co.insura.bhinneka:bhinneka-backend:jar:0.0.1-SNAPSHOT
[[1;33mWARNING[m] 'dependencies.dependency.version' for org.springframework.boot:spring-boot-starter-undertow:jar is either LATEST or RELEASE (both of them are being deprecated) @ line 77, column 13
[[1;33mWARNING[m] 'dependencies.dependency.(groupId:artifactId:type:classifier)' must be unique: org.projectlombok:lombok:jar -> version 1.16.8 vs edge-SNAPSHOT @ line 136, column 15
[[1;33mWARNING[m] 'dependencies.dependency.(groupId:artifactId:type:classifier)' must be unique: org.modelmapper:modelmapper:jar -> version 0.7.4 vs 2.3.2 @ line 205, column 15
[[1;33mWARNING[m] 'build.plugins.plugin.(groupId:artifactId)' must be unique but found duplicate declaration of plugin org.apache.maven.plugins:maven-compiler-plugin @ line 306, column 12
[[1;33mWARNING[m] 
[[1;33mWARNING[m] It is highly recommended to fix these problems because they threaten the stability of your build.
[[1;33mWARNING[m] 
[[1;33mWARNING[m] For this reason, future Maven versions might no longer support building such malformed projects.
[[1;33mWARNING[m] 
[[1;34mINFO[m] 
[[1;34mINFO[m] [1m---------------< [0;36mid.co.insura.bhinneka:bhinneka-backend[0;1m >---------------[m
[[1;34mINFO[m] [1mBuilding bhinneka-backend 0.0.1-SNAPSHOT[m
[[1;34mINFO[m] [1m--------------------------------[ jar ]---------------------------------[m
[[1;34mINFO[m] 
[[1;34mINFO[m] [1m--- [0;32mmaven-clean-plugin:3.0.0:clean[m [1m(default-clean)[m @ [36mbhinneka-backend[0;1m ---[m
[[1;34mINFO[m] Deleting /home/oem/insurance-workspace/bhinneka-backend/target
[[1;34mINFO[m] 
[[1;34mINFO[m] [1m--- [0;32mmaven-resources-plugin:3.0.2:resources[m [1m(default-resources)[m @ [36mbhinneka-backend[0;1m ---[m
[[1;34mINFO[m] Using 'UTF-8' encoding to copy filtered resources.
[[1;34mINFO[m] Copying 3 resources
[[1;34mINFO[m] Copying 4 resources
[[1;34mINFO[m] 
[[1;34mINFO[m] [1m--- [0;32mmaven-compiler-plugin:3.7.0:compile[m [1m(default-compile)[m @ [36mbhinneka-backend[0;1m ---[m
[[1;34mINFO[m] Changes detected - recompiling the module!
[[1;34mINFO[m] Compiling 74 source files to /home/oem/insurance-workspace/bhinneka-backend/target/classes
[[1;34mINFO[m] /home/oem/insurance-workspace/bhinneka-backend/src/main/java/id/co/insura/bhinneka/config/BasicConfiguration.java: /home/oem/insurance-workspace/bhinneka-backend/src/main/java/id/co/insura/bhinneka/config/BasicConfiguration.java uses or overrides a deprecated API.
[[1;34mINFO[m] /home/oem/insurance-workspace/bhinneka-backend/src/main/java/id/co/insura/bhinneka/config/BasicConfiguration.java: Recompile with -Xlint:deprecation for details.
[[1;34mINFO[m] /home/oem/insurance-workspace/bhinneka-backend/src/main/java/id/co/insura/bhinneka/model/WSResponse.java: Some input files use unchecked or unsafe operations.
[[1;34mINFO[m] /home/oem/insurance-workspace/bhinneka-backend/src/main/java/id/co/insura/bhinneka/model/WSResponse.java: Recompile with -Xlint:unchecked for details.
[[1;34mINFO[m] 
[[1;34mINFO[m] [1m--- [0;32mmaven-resources-plugin:3.0.2:testResources[m [1m(default-testResources)[m @ [36mbhinneka-backend[0;1m ---[m
[[1;34mINFO[m] Using 'UTF-8' encoding to copy filtered resources.
[[1;34mINFO[m] skip non existing resourceDirectory /home/oem/insurance-workspace/bhinneka-backend/src/test/resources
[[1;34mINFO[m] 
[[1;34mINFO[m] [1m--- [0;32mmaven-compiler-plugin:3.7.0:testCompile[m [1m(default-testCompile)[m @ [36mbhinneka-backend[0;1m ---[m
[[1;34mINFO[m] Nothing to compile - all classes are up to date
[[1;34mINFO[m] 
[[1;34mINFO[m] [1m--- [0;32mmaven-surefire-plugin:2.20.1:test[m [1m(default-test)[m @ [36mbhinneka-backend[0;1m ---[m
[[1;34mINFO[m] No tests to run.
[[1;34mINFO[m] 
[[1;34mINFO[m] [1m--- [0;32mmaven-jar-plugin:3.0.2:jar[m [1m(default-jar)[m @ [36mbhinneka-backend[0;1m ---[m
[[1;34mINFO[m] Building jar: /home/oem/insurance-workspace/bhinneka-backend/target/bhinneka-backend-0.0.1-SNAPSHOT.jar
[[1;34mINFO[m] 
[[1;34mINFO[m] [1m--- [0;32mspring-boot-maven-plugin:2.0.3.RELEASE:repackage[m [1m(default)[m @ [36mbhinneka-backend[0;1m ---[m
[[1;34mINFO[m] 
[[1;34mINFO[m] [1m--- [0;32mmaven-install-plugin:2.5.2:install[m [1m(default-install)[m @ [36mbhinneka-backend[0;1m ---[m
[[1;34mINFO[m] Installing /home/oem/insurance-workspace/bhinneka-backend/target/bhinneka-backend-0.0.1-SNAPSHOT.jar to /home/oem/.m2/repository/id/co/insura/bhinneka/bhinneka-backend/0.0.1-SNAPSHOT/bhinneka-backend-0.0.1-SNAPSHOT.jar
[[1;34mINFO[m] Installing /home/oem/insurance-workspace/bhinneka-backend/pom.xml to /home/oem/.m2/repository/id/co/insura/bhinneka/bhinneka-backend/0.0.1-SNAPSHOT/bhinneka-backend-0.0.1-SNAPSHOT.pom
[[1;34mINFO[m] [1m------------------------------------------------------------------------[m
[[1;34mINFO[m] [1;32mBUILD SUCCESS[m
[[1;34mINFO[m] [1m------------------------------------------------------------------------[m
[[1;34mINFO[m] Total time:  6.784 s
[[1;34mINFO[m] Finished at: 2019-12-19T11:48:25+07:00
[[1;34mINFO[m] [1m------------------------------------------------------------------------[m
