[
  {
    "id": 1,
    "status": "submitted",
    "label": "Submitted",
    "comment": "Data esubmission sudah tersubmitted ke core dan belum bayar"
  },
  {
    "id": 2,
    "status": "inactive.agent",
    "label": "Agen tidak aktif",
    "comment": "Data esubmission sudah tersubmit dengan response agen tidak aktif"
  },
  {
    "id": 3,
    "status": "idcard.rejected",
    "label": "Tidak lolos validasi KTP",
    "comment": "Data esubmission sudah tersubmit dengan response No KTP sudah terdaftar"
  },
  {
    "id": 4,
    "status": "incomplete.agent.form",
    "label": "Data agen belum lengkap",
    "comment": "Data esubmission sudah tersubmit dengan response Data agen belum lengkap"
  },
  {
    "id": 5,
    "status": "license.expired",
    "label": "Lisensi kadaluarsa",
    "comment": "Data esubmission sudah tersubmit dengan response Lisensi kadaluarsa"
  },
  {
    "id": 6,
    "status": "payment.invalid",
    "label": "Gagal validasi pembayaran",
    "comment": "Data esubmission sudah tersubmit dengan response Gagal validasi pembayaran"
  },
  {
    "id": 7,
    "status": "payment.validation",
    "label": "Validasi pembayaran",
    "comment": "Data esubmission sudah tersubmit dengan response Statusnya belum good fund (Belum diproses core)"
  },
  {
    "id": 8,
    "status": "paid",
    "label": "Paid",
    "comment": "Proses pembayaran telah dilakukan"
  }
]